<svg width="24" height="22" viewBox="0 0 24 22" fill="none" xmlns="http://www.w3.org/2000/svg">
<path fill-rule="evenodd" clip-rule="evenodd" d="M11.9933 4.40908C10.044 2.13731 6.79325 1.52621 4.35083 3.60647C1.9084 5.68673 1.56454 9.16483 3.48259 11.6252C5.07732 13.6708 9.90353 17.9851 11.4853 19.3815C11.6623 19.5377 11.7507 19.6158 11.854 19.6465C11.944 19.6733 12.0426 19.6733 12.1327 19.6465C12.2359 19.6158 12.3244 19.5377 12.5013 19.3815C14.0831 17.9851 18.9093 13.6708 20.504 11.6252C22.4221 9.16483 22.1202 5.66485 19.6358 3.60647C17.1514 1.5481 13.9427 2.13731 11.9933 4.40908Z" stroke="#1A7DE8" stroke-width="3" stroke-linecap="round" stroke-linejoin="round"/>
</svg>
